id;label;last_update
1;Fully-configurable;2020-06-17
2;cross-media Fantastic Plastic Gloves;2020-06-17
3;Directives fuchsia;2020-06-17
4;info-mediaries;2020-06-16
5;internet solution Bedfordshire Plastic;2020-06-17
6;Tunnel Buckinghamshire Personal Loan Acc;2020-06-16
7;pixel;2020-06-16
8;Fantastic Tokelau;2020-06-17
9;Synchronised Automotive Pennsylvania;2020-06-16
10;Beauty;2020-06-17
