id;label;last_update;todo_list_template_id
1;connect;2020-06-17;1
2;Credit Card Account;2020-06-17;2
3;withdrawal Forward;2020-06-16;3
4;Fundamental Naira Dynamic;2020-06-17;4
5;Profound Gorgeous Wooden Bike Granite;2020-06-17;5
6;SMTP Virginia;2020-06-17;6
7;Concrete Kansas;2020-06-17;7
8;withdrawal transform;2020-06-17;8
9;tangible;2020-06-17;9
10;high-level Home Loan Account;2020-06-16;10
