{
  "name": "TodoTemplate",
  "fields": [
    {
      "fieldName": "label",
      "fieldType": "String",
      "fieldValidateRules": ["required", "minlength", "maxlength"],
      "fieldValidateRulesMinlength": "5",
      "fieldValidateRulesMaxlength": "40"
    },
    {
      "fieldName": "lastUpdate",
      "fieldType": "LocalDate",
      "fieldValidateRules": ["required"]
    }
  ],
  "relationships": [
    {
      "relationshipType": "many-to-one",
      "otherEntityName": "todoListTemplate",
      "otherEntityRelationshipName": "todoTemplate",
      "relationshipValidateRules": "required",
      "relationshipName": "todoListTemplate",
      "otherEntityField": "label"
    }
  ],
  "changelogDate": "20200617134759",
  "entityTableName": "todo_template",
  "dto": "mapstruct",
  "pagination": "infinite-scroll",
  "service": "serviceClass",
  "jpaMetamodelFiltering": true,
  "fluentMethods": true,
  "readOnly": false,
  "embedded": false,
  "clientRootFolder": "",
  "applications": ["mhaweb2"]
}
